DONE 2014-07-29 Ueberabeitung 
  CLOSED: 2014-07-29 12:24:36
  asfa 
  asfdas 
  sdg s
  
  :LOGBOOK:
    DONE: 2014-07-29 12:24:36
    WAITING: 2014-07-29 12:24:36
    TODO: 2014-07-29 12:24:02
    CANCELLED: 2014-07-29 12:24:02
    DONE: 2014-07-29 12:23:56
    WAITING: 2014-07-29 12:23:54

CANCELLED 2014-07-31 minted statt lstlisting
    CLOSED: 2014-08-01 11:16:55
    :LOGBOOK:
        CANCELLED: 2014-08-01 11:16:55
        DONE: 2014-08-01 11:16:51
DONE 2014-07-30 b.mat.0940 ist erlaubt.
  CLOSED: 2014-08-05 11:36:27
  :LOGBOOK:
    DONE: 2014-08-05 11:36:27
    WAITING: 2014-07-30 13:03:25
CANCELLED 2014-07-31 minted statt lstlistings
  CLOSED: 2014-08-05 11:36:22
  :LOGBOOK:
    CANCELLED: 2014-08-05 11:36:22
    DONE: 2014-08-05 11:36:21
    WAITING: 2014-08-05 11:36:20



CANCELLED 2014-07-31 uebungen mit namen versehen & uebungstemplate numerierung
  CLOSED: 2014-08-07 15:06:46
  :LOGBOOK:
    CANCELLED: 2014-08-07 15:06:46
    DONE: 2014-08-07 15:06:45
    WAITING: 2014-08-07 15:06:44
DONE 2014-07-16 beamer-template fuer pandoc erstellen und anpassen
  CLOSED: 2014-08-21 19:00:55
  :LOGBOOK:
    DONE: 2014-08-21 19:00:55
    WAITING: 2014-07-30 13:03:33
DONE 2014-07-24 25, 26ter anderen Raum nutzen: raum gebucht. muss nur account holen.
  CLOSED: 2014-08-25 20:08:10
  :LOGBOOK:
    DONE: 2014-08-25 20:08:10
    WAITING: 2014-07-30 13:03:30

ALLGEMEINES:

-manchen code vor Ort programmieren und nicht fertigen code darstellen.
DONE 2014-07-16 beamer-template fuer pandoc erstellen und anpassen
  CLOSED: 2014-08-21 19:00:55
  :LOGBOOK:
    DONE: 2014-08-21 19:00:55
    WAITING: 2014-07-30 13:03:33
DONE 2014-07-24 25, 26ter anderen Raum nutzen: raum gebucht. muss nur account holen.
  CLOSED: 2014-08-25 20:08:10
  :LOGBOOK:
    DONE: 2014-08-25 20:08:10
    WAITING: 2014-07-30 13:03:30

ALLGEMEINES:

DONE 2014-07-16 beamer-template fuer pandoc erstellen und anpassen
  CLOSED: 2014-08-21 19:00:55
  :LOGBOOK:
    DONE: 2014-08-21 19:00:55
    WAITING: 2014-07-30 13:03:33
DONE 2014-07-24 25, 26ter anderen Raum nutzen: raum gebucht. muss nur account holen.
  CLOSED: 2014-08-25 20:08:10
  :LOGBOOK:
    DONE: 2014-08-25 20:08:10
    WAITING: 2014-07-30 13:03:30

DONE 2014-07-16 beamer-template fuer pandoc erstellen und anpassen
  CLOSED: 2014-08-21 19:00:55
  :LOGBOOK:
    DONE: 2014-08-21 19:00:55
    WAITING: 2014-07-30 13:03:33
DONE 2014-07-24 25, 26ter anderen Raum nutzen: raum gebucht. muss nur account holen.
  CLOSED: 2014-08-25 20:08:10
  :LOGBOOK:
    DONE: 2014-08-25 20:08:10
    WAITING: 2014-07-30 13:03:30

DONE 2014-07-16 beamer-template fuer pandoc erstellen und anpassen
  CLOSED: 2014-08-21 19:00:55
  :LOGBOOK:
    DONE: 2014-08-21 19:00:55
    WAITING: 2014-07-30 13:03:33
DONE 2014-07-24 25, 26ter anderen Raum nutzen: raum gebucht. muss nur account holen.
  CLOSED: 2014-08-25 20:08:10
  :LOGBOOK:
    DONE: 2014-08-25 20:08:10
    WAITING: 2014-07-30 13:03:30

DONE 2014-08-26 state monad, monad transformators, mapM
  CLOSED: 2014-09-01 13:47:56
  :LOGBOOK:
    DONE: 2014-09-01 13:47:56
    WAITING: 2014-09-01 13:47:43

DONE 2014-09-01 lineare algebra
  CLOSED: 2014-09-01 13:48:28
  :LOGBOOK:
    DONE: 2014-09-01 13:48:28
    WAITING: 2014-09-01 13:48:27
DONE 2014-07-31 folie mit "wie editieren", IDEs, Kommentare
  CLOSED: 2015-06-09 12:19:44
      :LOGBOOK:
        DONE: 2015-06-09 12:19:44
        WAITING: 2015-06-09 12:19:44
			zu "Einrückung"? in "grundlegendes" (Section 1)
			hlint dabei erwähnen
			compileroptionen?
DONE 2014-07-31 typklassen wirklich am anfang?
  CLOSED: 2014-09-02 14:25:51
  :LOGBOOK:
    DONE: 2014-09-02 14:25:51
    WAITING: 2014-09-02 14:25:47
	unterscheidung: typklassen, typen => bild? (gibt schon ein bild, allerdings geklaut)
CANCELLED 2014-08-07 literate haskell fuer vorlesung nur moeglich wenn ## zu ---- wird.
  CLOSED: 2015-06-09 12:20:46
  :LOGBOOK:
    CANCELLED: 2015-06-09 12:20:46
    DONE: 2015-06-09 12:20:45
    WAITING: 2015-06-09 12:20:45
DONE 2014-07-16 pruefungsberechtigung noetig fuer bmat1310. brauche ich falls dieses Modul mit implementiert werden soll
  CLOSED: 2015-06-09 12:20:53
  :LOGBOOK:
    DONE: 2015-06-09 12:20:53
    WAITING: 2015-06-09 12:20:52
DONE 2014-08-26 praktikum wissenschaftliches Rechnen daraus machen (python/matlab/haskell 
  CLOSED: 2015-06-09 12:20:58
  :LOGBOOK:
    DONE: 2015-06-09 12:20:58
    WAITING: 2015-06-09 12:20:57
    TODO: 2014-08-01 11:17:33
    CANCELLED: 2014-08-01 11:17:21
    TODO: 2014-08-01 11:17:02
    CANCELLED: 2014-08-01 11:17:01
    DONE: 2014-08-01 11:16:59
    WAITING: 2014-08-01 11:16:58
DONE 2014-08-07 wie kann man environments durch markdown erzeugen? siehe blocks bei beamer? muss eigenen filter bauen
  CLOSED: 2015-06-09 12:21:25
  :LOGBOOK:
    DONE: 2015-06-09 12:21:25
    WAITING: 2015-06-09 12:21:25
DONE 2014-08-28 wie kann man ordentlich nummerieren?
  CLOSED: 2015-06-09 12:21:31
  :LOGBOOK:
    DONE: 2015-06-09 12:21:31
    WAITING: 2015-06-09 12:21:31
DONE 2014-08-24 build-skript und automatisches hochladen 
  CLOSED: 2015-06-09 12:25:14
  :LOGBOOK:
    DONE: 2015-06-09 12:25:14
    WAITING: 2015-06-09 12:25:14
CANCELLED 2015-06-11 codemirror-standard languange setzen koennen
  CLOSED: 2015-06-12 11:56:01
  :LOGBOOK:
    CANCELLED: 2015-06-12 11:56:01
    DONE: 2015-06-12 11:56:00
    WAITING: 2015-06-12 11:56:00

INHALT:

DONE 2015-06-24 cassava in 15 io: Data.csv ersetzen? 
  CLOSED: 2015-07-10 16:51:48
  :LOGBOOK:
    DONE: 2015-07-10 16:51:48
    WAITING: 2015-07-10 16:51:48
DONE 2015-06-24 anfang kompakter und kuerzer machen
  CLOSED: 2015-07-10 16:51:45
  :LOGBOOK:
    DONE: 2015-07-10 16:51:45
    WAITING: 2015-07-10 16:51:44

DONE 2014-09-04 poisson: da ist noch ein Fehler drin
  CLOSED: 2015-07-10 16:43:54
  :LOGBOOK:
    DONE: 2015-07-10 16:43:54
    WAITING: 2015-07-10 16:43:53

DONE 2015-06-12 monaden2 evtl. direkt hinter monaden1
  CLOSED: 2015-07-10 16:43:59
  :LOGBOOK:
    DONE: 2015-07-10 16:43:59
    WAITING: 2015-07-10 16:43:59
DONE 2015-08-04 complex numbers?> - > hmatrix
  CLOSED: 2015-08-04 14:22:24
  :LOGBOOK:
    DONE: 2015-08-04 14:22:24
    WAITING: 2015-08-04 14:22:24
DONE 2014-09-02 sparse matrizen bei hmatrix mit einfuehren 
  CLOSED: 2015-08-05 16:26:12
  :LOGBOOK:
    DONE: 2015-08-05 16:26:12
    WAITING: 2015-08-05 16:26:11
DONE 2015-08-07 python-visualisierungsblackbox : mit gui und speicher-moeglichkeiten
  CLOSED: 2015-08-13 11:54:32
  :LOGBOOK:
    DONE: 2015-08-13 11:54:32
    WAITING: 2015-08-13 11:54:31

DONE 2014-09-01 3d-grafiken: gnuplot (lass ich aber weg, bis es was besseres gibt) fuer kleine sachen plot-gtk nutzen
  CLOSED: 2015-08-13 11:54:49
  :LOGBOOK:
    DONE: 2015-08-13 11:54:49
    WAITING: 2014-09-01 14:27:30

DONE 2015-06-09 uebertragung der folien nach ihaskell notebooks und ins englische uebersetzen
  CLOSED: 2015-08-14 19:11:15
  :LOGBOOK:
    DONE: 2015-08-14 19:11:15
    WAITING: 2015-08-14 19:11:15
  englisch fuer lecture 1

DONE 2015-06-26 install profiling libraries 
  CLOSED: 2015-08-27 19:56:38
  :LOGBOOK:
    DONE: 2015-08-27 19:56:38
    WAITING: 2015-08-25 20:25:23

DONE 2015-08-14 change <img> to ihaskell-builtin types (because nb-viewer isnt working with this)
  CLOSED: 2016-03-17 12:18:08
  :LOGBOOK:
    DONE: 2016-03-17 12:18:08
    WAITING: 2016-03-17 12:18:07
DONE 2015-08-27  evtl. recursion reduzieren (bzw. performance diskussion spaeter)
  CLOSED: 2016-03-17 12:18:15
  :LOGBOOK:
    DONE: 2016-03-17 12:18:15
    WAITING: 2016-03-17 12:18:14


14: erklaerung fuer fmap = bind mathematisch genau hinschreiben



DONE 2015-07-23   diagrams 
  CLOSED: 2016-03-17 13:15:51
  :LOGBOOK:
    DONE: 2016-03-17 13:15:51
    WAITING: 2015-07-23 11:08:17

CANCELLED 2015-07-23  cloudhaskell 
  CLOSED: 2015-09-04 19:00:20
  :LOGBOOK:
    CANCELLED: 2015-09-04 19:00:20
    DONE: 2015-09-04 19:00:15
    WAITING: 2015-07-23 11:08:19


DONE 2016-03-17 18 saving charts kaputt?
  CLOSED: 2016-03-18 15:40:31
  :LOGBOOK:
    DONE: 2016-03-18 15:40:31
    WAITING: 2016-03-18 15:40:31

DONE 2016-03-18 19: threadscope und geschwindigkeit?
  CLOSED: 2016-03-18 14:35:47
  :LOGBOOK:
    DONE: 2016-03-18 14:35:47
    WAITING: 2016-03-18 14:35:47

DONE 2015-08-25 make exercise 5 indepentend from map 
  CLOSED: 2016-03-18 15:08:55
  :LOGBOOK:
    DONE: 2016-03-18 15:08:55
    WAITING: 2016-03-18 15:08:55

